Introdução ao tidyverse
…
---

# 4.10 Gráfico pareado (pairs plot)

## Selecionar as colunas

```r
# selecionar as colunas
da_sel <- da %>% 
  select(temperature, precipitation, altitude)
da_sel
```

```
## # A tibble: 1,163 x 3
##    temperature precipitation altitude
##          <dbl>         <dbl>    <dbl>
##  1        25.0           853      543
##  2        26.5          1318       15
##  3        26.4          1248       29
##  4        26.6          1376       25
##  5        21.4          1689      750
##  6        20.4          1249      745
##  7        21.6          1520      863
##  8        21.5          1474      878
##  9        21.8          1450      826
## 10        25.4          1332       93
## # … with 1,153 more rows
```
…
