Introdução ao tidyverse
…
# 5.6 Função augment

## Informações sobre observações do modelo

```r
# package
library(broom)

# observacoes do modelo
broom::augment(lmfit)
```

```
## # A tibble: 150 x 9
##    Sepal.Length Petal.Length .fitted .se.fit  .resid   .hat .sigma .cooksd
##           <dbl>        <dbl>   <dbl>   <dbl>   <dbl>  <dbl>  <dbl>   <dbl>
##  1          5.1          1.4    4.88  0.0556  0.221  0.0186  0.408 2.85e-3
##  2          4.9          1.4    4.88  0.0556  0.0209 0.0186  0.408 2.55e-5
##  3          4.7          1.3    4.84  0.0571 -0.138  0.0197  0.408 1.18e-3
##  4          4.6          1.5    4.92  0.0541 -0.320  0.0176  0.408 5.65e-3
##  5          5            1.4    4.88  0.0556  0.121  0.0186  0.408 8.54e-4
##  6          5.4          1.7    5.00  0.0511  0.398  0.0158  0.407 7.80e-3
##  7          4.6          1.4    4.88  0.0556 -0.279  0.0186  0.408 4.55e-3
##  8          5            1.5    4.92  0.0541  0.0800 0.0176  0.408 3.53e-4
##  9          4.4          1.4    4.88  0.0556 -0.479  0.0186  0.407 1.34e-2
## 10          4.9          1.5    4.92  0.0541 -0.0200 0.0176  0.408 2.20e-5
## # … with 140 more rows, and 1 more variable: .std.resid <dbl>
```
…
# 5.6 Função augment

###  Add informações sobre observações do modelo aos dados

```r
# package
library(broom)

# observacoes do modelo
broom::augment(lmfit, data = iris)
```

```
## # A tibble: 150 x 12
##    Sepal.Length Sepal.Width Petal.Length Petal.Width Species .fitted .se.fit
##           <dbl>       <dbl>        <dbl>       <dbl> <fct>     <dbl>   <dbl>
##  1          5.1         3.5          1.4         0.2 setosa     4.88  0.0556
##  2          4.9         3            1.4         0.2 setosa     4.88  0.0556
##  3          4.7         3.2          1.3         0.2 setosa     4.84  0.0571
##  4          4.6         3.1          1.5         0.2 setosa     4.92  0.0541
##  5          5           3.6          1.4         0.2 setosa     4.88  0.0556
##  6          5.4         3.9          1.7         0.4 setosa     5.00  0.0511
##  7          4.6         3.4          1.4         0.3 setosa     4.88  0.0556
##  8          5           3.4          1.5         0.2 setosa     4.92  0.0541
##  9          4.4         2.9          1.4         0.2 setosa     4.88  0.0556
## 10          4.9         3.1          1.5         0.1 setosa     4.92  0.0541
## # … with 140 more rows, and 5 more variables: .resid <dbl>, .hat <dbl>,
## #   .sigma <dbl>, .cooksd <dbl>, .std.resid <dbl>
```
…
---

background-image: url(img/package_parsnip.png)
background-size: 100px
background-position: 95% 90%

# 5.10 Pacote parsnip

```r
# Predictions
stats::predict(iris_rf, iris_testing)
```

```
## # A tibble: 60 x 1
##    .pred_class
##    <fct>      
##  1 setosa     
##  2 setosa     
##  3 setosa     
##  4 setosa     
##  5 setosa     
##  6 setosa     
##  7 setosa     
##  8 setosa     
##  9 setosa     
## 10 setosa     
## # … with 50 more rows
```
…
